﻿Test data 1;Test data 2;Test data 3;Test data 4;Test data 5;øæ©@£≈;…™˙ÅÖÄ#€%°§;🙂;☀ ☁ ☂ ☃
1;10;100;1000;5;;;;
2;20;200;2000;;;;;
3;30;300;3000;;;;;
4;40;400;4000;;;;;
5;50;500;5000;;;;;
6;60;600;6000;;;;;
7;70;700;7000;;;;;
8;80;800;8000;;;;;
9;90;900;9000;;;;;
10;100;1000;10000;;;;;
11;110;1100;11000;;;;;
12;120;1200;12000;;;;;
13;130;1300;13000;;;;;
14;140;1400;14000;;;;;
15;150;1500;15000;;;;;
16;160;1600;16000;;;;;
17;170;1700;17000;;;;;
18;180;1800;18000;;;;;
19;190;1900;19000;;;;;
20;200;2000;20000;;;;;
21;210;2100;21000;;;;;
22;220;2200;22000;;;;;
23;230;2300;23000;;;;;
24;240;2400;24000;;;;;
25;250;2500;25000;;;;;